info face="pixelmix Regular" size=8 bold=0 italic=0 charset="" unicode=0 stretchH=100 smooth=1 aa=1 padding=1,1,1,1 spacing=-2,-2
common lineHeight=8 base=8 scaleW=512 scaleH=512 pages=1 packed=0
page id=0 file="newpixel.png"
chars count=98
char id=0       x=0    y=0    width=0    height=0    xoffset=-1   yoffset=0    xadvance=0    page=0    chnl=0 
char id=10      x=0    y=0    width=0    height=0    xoffset=-1   yoffset=0    xadvance=0    page=0    chnl=0 
char id=32      x=0    y=0    width=0    height=0    xoffset=-1   yoffset=0    xadvance=5    page=0    chnl=0 
char id=33      x=361  y=0    width=4    height=10   xoffset=-1   yoffset=-1   xadvance=2    page=0    chnl=0 
char id=34      x=154  y=11   width=6    height=5    xoffset=-1   yoffset=-1   xadvance=4    page=0    chnl=0 
char id=35      x=462  y=0    width=8    height=10   xoffset=-1   yoffset=-1   xadvance=6    page=0    chnl=0 
char id=36      x=446  y=0    width=8    height=10   xoffset=-1   yoffset=-1   xadvance=6    page=0    chnl=0 
char id=37      x=454  y=0    width=8    height=10   xoffset=-1   yoffset=-1   xadvance=6    page=0    chnl=0 
char id=38      x=470  y=0    width=9    height=10   xoffset=-1   yoffset=-1   xadvance=7    page=0    chnl=0 
char id=39      x=165  y=11   width=4    height=5    xoffset=-1   yoffset=-1   xadvance=2    page=0    chnl=0 
char id=40      x=372  y=0    width=6    height=10   xoffset=-1   yoffset=-1   xadvance=4    page=0    chnl=0 
char id=41      x=378  y=0    width=6    height=10   xoffset=-1   yoffset=-1   xadvance=4    page=0    chnl=0 
char id=42      x=148  y=11   width=6    height=6    xoffset=-1   yoffset=-1   xadvance=4    page=0    chnl=0 
char id=43      x=116  y=11   width=8    height=8    xoffset=-1   yoffset=0    xadvance=6    page=0    chnl=0 
char id=44      x=174  y=11   width=5    height=5    xoffset=-1   yoffset=4    xadvance=3    page=0    chnl=0 
char id=45      x=179  y=11   width=8    height=4    xoffset=-1   yoffset=2    xadvance=6    page=0    chnl=0 
char id=46      x=169  y=11   width=5    height=5    xoffset=-1   yoffset=4    xadvance=3    page=0    chnl=0 
char id=47      x=424  y=0    width=6    height=10   xoffset=-1   yoffset=-1   xadvance=4    page=0    chnl=0 
char id=48      x=353  y=0    width=8    height=10   xoffset=-1   yoffset=-1   xadvance=6    page=0    chnl=0 
char id=49      x=283  y=0    width=6    height=10   xoffset=-1   yoffset=-1   xadvance=4    page=0    chnl=0 
char id=50      x=289  y=0    width=8    height=10   xoffset=-1   yoffset=-1   xadvance=6    page=0    chnl=0 
char id=51      x=297  y=0    width=8    height=10   xoffset=-1   yoffset=-1   xadvance=6    page=0    chnl=0 
char id=52      x=305  y=0    width=8    height=10   xoffset=-1   yoffset=-1   xadvance=6    page=0    chnl=0 
char id=53      x=313  y=0    width=8    height=10   xoffset=-1   yoffset=-1   xadvance=6    page=0    chnl=0 
char id=54      x=321  y=0    width=8    height=10   xoffset=-1   yoffset=-1   xadvance=6    page=0    chnl=0 
char id=55      x=329  y=0    width=8    height=10   xoffset=-1   yoffset=-1   xadvance=6    page=0    chnl=0 
char id=56      x=337  y=0    width=8    height=10   xoffset=-1   yoffset=-1   xadvance=6    page=0    chnl=0 
char id=57      x=345  y=0    width=8    height=10   xoffset=-1   yoffset=-1   xadvance=6    page=0    chnl=0 
char id=58      x=112  y=11   width=4    height=8    xoffset=-1   yoffset=0    xadvance=2    page=0    chnl=0 
char id=59      x=487  y=0    width=5    height=9    xoffset=-1   yoffset=0    xadvance=3    page=0    chnl=0 
char id=60      x=406  y=0    width=7    height=10   xoffset=-1   yoffset=-1   xadvance=5    page=0    chnl=0 
char id=61      x=132  y=11   width=8    height=6    xoffset=-1   yoffset=1    xadvance=6    page=0    chnl=0 
char id=62      x=413  y=0    width=7    height=10   xoffset=-1   yoffset=-1   xadvance=5    page=0    chnl=0 
char id=63      x=365  y=0    width=7    height=10   xoffset=-1   yoffset=-1   xadvance=5    page=0    chnl=0 
char id=64      x=430  y=0    width=10   height=10   xoffset=-1   yoffset=-1   xadvance=8    page=0    chnl=0 
char id=65      x=19   y=0    width=8    height=10   xoffset=-1   yoffset=-1   xadvance=6    page=0    chnl=0 
char id=66      x=27   y=0    width=8    height=10   xoffset=-1   yoffset=-1   xadvance=6    page=0    chnl=0 
char id=67      x=35   y=0    width=8    height=10   xoffset=-1   yoffset=-1   xadvance=6    page=0    chnl=0 
char id=68      x=43   y=0    width=8    height=10   xoffset=-1   yoffset=-1   xadvance=6    page=0    chnl=0 
char id=69      x=51   y=0    width=8    height=10   xoffset=-1   yoffset=-1   xadvance=6    page=0    chnl=0 
char id=70      x=59   y=0    width=8    height=10   xoffset=-1   yoffset=-1   xadvance=6    page=0    chnl=0 
char id=71      x=67   y=0    width=8    height=10   xoffset=-1   yoffset=-1   xadvance=6    page=0    chnl=0 
char id=72      x=75   y=0    width=8    height=10   xoffset=-1   yoffset=-1   xadvance=6    page=0    chnl=0 
char id=73      x=83   y=0    width=6    height=10   xoffset=-1   yoffset=-1   xadvance=4    page=0    chnl=0 
char id=74      x=89   y=0    width=8    height=10   xoffset=-1   yoffset=-1   xadvance=6    page=0    chnl=0 
char id=75      x=97   y=0    width=8    height=10   xoffset=-1   yoffset=-1   xadvance=6    page=0    chnl=0 
char id=76      x=105  y=0    width=8    height=10   xoffset=-1   yoffset=-1   xadvance=6    page=0    chnl=0 
char id=77      x=113  y=0    width=8    height=10   xoffset=-1   yoffset=-1   xadvance=6    page=0    chnl=0 
char id=78      x=121  y=0    width=8    height=10   xoffset=-1   yoffset=-1   xadvance=6    page=0    chnl=0 
char id=79      x=129  y=0    width=8    height=10   xoffset=-1   yoffset=-1   xadvance=6    page=0    chnl=0 
char id=80      x=137  y=0    width=8    height=10   xoffset=-1   yoffset=-1   xadvance=6    page=0    chnl=0 
char id=81      x=145  y=0    width=8    height=10   xoffset=-1   yoffset=-1   xadvance=6    page=0    chnl=0 
char id=82      x=153  y=0    width=8    height=10   xoffset=-1   yoffset=-1   xadvance=6    page=0    chnl=0 
char id=83      x=161  y=0    width=8    height=10   xoffset=-1   yoffset=-1   xadvance=6    page=0    chnl=0 
char id=84      x=169  y=0    width=8    height=10   xoffset=-1   yoffset=-1   xadvance=6    page=0    chnl=0 
char id=85      x=177  y=0    width=8    height=10   xoffset=-1   yoffset=-1   xadvance=6    page=0    chnl=0 
char id=86      x=185  y=0    width=8    height=10   xoffset=-1   yoffset=-1   xadvance=6    page=0    chnl=0 
char id=87      x=193  y=0    width=8    height=10   xoffset=-1   yoffset=-1   xadvance=6    page=0    chnl=0 
char id=88      x=201  y=0    width=8    height=10   xoffset=-1   yoffset=-1   xadvance=6    page=0    chnl=0 
char id=89      x=209  y=0    width=8    height=10   xoffset=-1   yoffset=-1   xadvance=6    page=0    chnl=0 
char id=90      x=217  y=0    width=8    height=10   xoffset=-1   yoffset=-1   xadvance=6    page=0    chnl=0 
char id=91      x=384  y=0    width=5    height=10   xoffset=-1   yoffset=-1   xadvance=3    page=0    chnl=0 
char id=92      x=440  y=0    width=6    height=10   xoffset=-1   yoffset=-1   xadvance=4    page=0    chnl=0 
char id=93      x=389  y=0    width=5    height=10   xoffset=-1   yoffset=-1   xadvance=3    page=0    chnl=0 
char id=94      x=124  y=11   width=8    height=6    xoffset=-1   yoffset=-1   xadvance=6    page=0    chnl=0 
char id=95      x=187  y=11   width=7    height=4    xoffset=-1   yoffset=5    xadvance=5    page=0    chnl=0 
char id=96      x=160  y=11   width=5    height=5    xoffset=-1   yoffset=-1   xadvance=3    page=0    chnl=0 
char id=97      x=492  y=0    width=8    height=8    xoffset=-1   yoffset=1    xadvance=6    page=0    chnl=0 
char id=98      x=225  y=0    width=8    height=10   xoffset=-1   yoffset=-1   xadvance=6    page=0    chnl=0 
char id=99      x=500  y=0    width=8    height=8    xoffset=-1   yoffset=1    xadvance=6    page=0    chnl=0 
char id=100     x=233  y=0    width=8    height=10   xoffset=-1   yoffset=-1   xadvance=6    page=0    chnl=0 
char id=101     x=0    y=11   width=8    height=8    xoffset=-1   yoffset=1    xadvance=6    page=0    chnl=0 
char id=102     x=0    y=0    width=8    height=11   xoffset=-1   yoffset=-2   xadvance=6    page=0    chnl=0 
char id=103     x=479  y=0    width=8    height=9    xoffset=-1   yoffset=0    xadvance=6    page=0    chnl=0 
char id=104     x=241  y=0    width=8    height=10   xoffset=-1   yoffset=-1   xadvance=6    page=0    chnl=0 
char id=105     x=249  y=0    width=6    height=10   xoffset=-1   yoffset=-1   xadvance=4    page=0    chnl=0 
char id=106     x=255  y=0    width=7    height=10   xoffset=-1   yoffset=-1   xadvance=5    page=0    chnl=0 
char id=107     x=262  y=0    width=7    height=10   xoffset=-1   yoffset=-1   xadvance=5    page=0    chnl=0 
char id=108     x=269  y=0    width=6    height=10   xoffset=-1   yoffset=-1   xadvance=4    page=0    chnl=0 
char id=109     x=8    y=11   width=8    height=8    xoffset=-1   yoffset=1    xadvance=6    page=0    chnl=0 
char id=110     x=16   y=11   width=8    height=8    xoffset=-1   yoffset=1    xadvance=6    page=0    chnl=0 
char id=111     x=24   y=11   width=8    height=8    xoffset=-1   yoffset=1    xadvance=6    page=0    chnl=0 
char id=112     x=32   y=11   width=8    height=8    xoffset=-1   yoffset=1    xadvance=6    page=0    chnl=0 
char id=113     x=40   y=11   width=8    height=8    xoffset=-1   yoffset=1    xadvance=6    page=0    chnl=0 
char id=114     x=48   y=11   width=8    height=8    xoffset=-1   yoffset=1    xadvance=6    page=0    chnl=0 
char id=115     x=56   y=11   width=8    height=8    xoffset=-1   yoffset=1    xadvance=6    page=0    chnl=0 
char id=116     x=275  y=0    width=8    height=10   xoffset=-1   yoffset=-1   xadvance=6    page=0    chnl=0 
char id=117     x=64   y=11   width=8    height=8    xoffset=-1   yoffset=1    xadvance=6    page=0    chnl=0 
char id=118     x=72   y=11   width=8    height=8    xoffset=-1   yoffset=1    xadvance=6    page=0    chnl=0 
char id=119     x=80   y=11   width=8    height=8    xoffset=-1   yoffset=1    xadvance=6    page=0    chnl=0 
char id=120     x=88   y=11   width=8    height=8    xoffset=-1   yoffset=1    xadvance=6    page=0    chnl=0 
char id=121     x=96   y=11   width=8    height=8    xoffset=-1   yoffset=1    xadvance=6    page=0    chnl=0 
char id=122     x=104  y=11   width=8    height=8    xoffset=-1   yoffset=1    xadvance=6    page=0    chnl=0 
char id=123     x=394  y=0    width=6    height=10   xoffset=-1   yoffset=-1   xadvance=4    page=0    chnl=0 
char id=124     x=420  y=0    width=4    height=10   xoffset=-1   yoffset=-1   xadvance=2    page=0    chnl=0 
char id=125     x=400  y=0    width=6    height=10   xoffset=-1   yoffset=-1   xadvance=4    page=0    chnl=0 
char id=126     x=140  y=11   width=8    height=6    xoffset=-1   yoffset=1    xadvance=6    page=0    chnl=0 
char id=127     x=8    y=0    width=11   height=11   xoffset=-1   yoffset=-2   xadvance=8    page=0    chnl=0 
kernings count=0
